\relax 
\providecommand\hyper@newdestlabel[2]{}
\catcode `"\active 
\bibstyle{apsrev4-1}
\providecommand\HyperFirstAtBeginDocument{\AtBeginDocument}
\HyperFirstAtBeginDocument{\ifx\hyper@anchor\@undefined
\global\let\oldcontentsline\contentsline
\gdef\contentsline#1#2#3#4{\oldcontentsline{#1}{#2}{#3}}
\global\let\oldnewlabel\newlabel
\gdef\newlabel#1#2{\newlabelxx{#1}#2}
\gdef\newlabelxx#1#2#3#4#5#6{\oldnewlabel{#1}{{#2}{#3}}}
\AtEndDocument{\ifx\hyper@anchor\@undefined
\let\contentsline\oldcontentsline
\let\newlabel\oldnewlabel
\fi}
\fi}
\global\let\hyper@last\relax 
\gdef\HyperFirstAtBeginDocument#1{#1}
\providecommand\HyField@AuxAddToFields[1]{}
\providecommand\HyField@AuxAddToCoFields[2]{}
\select@language{english}
\@writefile{toc}{\select@language{english}}
\@writefile{lof}{\select@language{english}}
\@writefile{lot}{\select@language{english}}
\citation{Hawking1974,Hawking1975}
\citation{Bekenstein1973}
\citation{Fulling1973a,Unruh1977}
\citation{Davies1975a}
\citation{Unruh1976a}
\citation{Bisognano1975,Bisognano1976}
\citation{Alsing2012}
\citation{Sciama1981}
\citation{Jacobson1995}
\citation{Singleton2011}
\citation{Nation2012}
\citation{Moore1970,DeWitt1975,Calogeracos2002,Calogeracos2002a,Russo2008}
\citation{DeWitt1975,Davies1978,Sciama1981,Birrell1982,Takagi1986,Fulling1987,Ginzburg1987,Wald1994,Crispino2008}
\@writefile{toc}{\contentsline {chapter}{Introduction}{3}{chapter*.2}}
\citation{Glauber1963}
\citation{DeWitt1979}
\citation{Hu2012}
\citation{Louko2007,Hodgkinson2012,Hodgkinson2014,Martin-Martinez2014}
\citation{Ginzburg1964,Muller1997,Vanzella2000,Fregolente2006,Pierini2018}
\citation{Eriksen2000,Eriksen2000a,Eriksen2000b,Eriksen2002,Eriksen2004}
\citation{Audretsch1995,Kok2003}
\citation{Wald2005,Page2005}
\citation{Jaskula2012,Rodriguez-Laguna2017,Martin-Martinez2010,Volovik2009,Unruh1981,Weinfurtner2011,Garay2001,Fedichev2003,Fedichev2004,Steinhauer2014,Steinhauer2016,Carusotto2010,Boiron2015,Retzker2008,Philbin2008,Belgiorno2010,Schutzhold2011,Unruh2012,Finazzi2014,Iorio2012,Chen2012,Iorio2014}
\citation{Peres2004,Alsing2012}
\citation{Fuentes-Schuller2005a}
\citation{Reznik2003,Reznik2005,Valentini1991,Pozas-Kerstjens2015,Martin-Martinez2013,Salton2015,Steeg2009,Martin-Martinez2012}
\citation{Ahmadi2016a}
\citation{Adesso2007a}
\citation{Simon1994}
\citation{Holevo1975}
\@writefile{toc}{\contentsline {chapter}{\numberline {1}Preliminaries}{7}{chapter.1}}
\@writefile{lof}{\addvspace {10\p@ }}
\@writefile{lot}{\addvspace {10\p@ }}
\newlabel{r:unruh}{{1}{7}{Preliminaries}{chapter.1}{}}
\@writefile{toc}{\contentsline {section}{\numberline {1.1}Gaussian states}{7}{section.1.1}}
\citation{Schumaker1986}
\citation{Simon1988}
\citation{Braunstein2005}
\citation{Werner1989}
\citation{Peres1996,Horodecki1996}
\citation{Simon2000}
\citation{Vidal2002}
\newlabel{gauss}{{1.8}{8}{Gaussian states}{equation.1.1.8}{}}
\@writefile{toc}{\contentsline {subsection}{\numberline {1.1.1}Entanglement of the bipartite system}{8}{subsection.1.1.1}}
\citation{Serafini2004}
\citation{Simon2000}
\citation{Crispino2008}
\citation{Wald1994}
\newlabel{qm_logneg}{{1.11}{9}{Entanglement of the bipartite system}{equation.1.1.11}{}}
\newlabel{eq:pos}{{1.12}{9}{Entanglement of the bipartite system}{equation.1.1.12}{}}
\newlabel{ineq}{{1.15}{9}{Entanglement of the bipartite system}{equation.1.1.15}{}}
\newlabel{lognegt}{{1.17}{9}{Entanglement of the bipartite system}{equation.1.1.17}{}}
\@writefile{toc}{\contentsline {section}{\numberline {1.2}Unruh effect}{9}{section.1.2}}
\citation{Arnowitt1962}
\citation{Wald1984}
\@writefile{toc}{\contentsline {subsection}{\numberline {1.2.1}Free scalar field in a curved spacetime}{10}{subsection.1.2.1}}
\newlabel{sec:curv}{{1.2.1}{10}{Free scalar field in a curved spacetime}{subsection.1.2.1}{}}
\newlabel{metric}{{1.18}{10}{Free scalar field in a curved spacetime}{equation.1.2.18}{}}
\newlabel{sec2:lag}{{1.20}{10}{Free scalar field in a curved spacetime}{equation.1.2.20}{}}
\newlabel{sec2:KGinner}{{1.23}{10}{Free scalar field in a curved spacetime}{equation.1.2.23}{}}
\newlabel{sec2:KGprod}{{1.24}{10}{Free scalar field in a curved spacetime}{equation.1.2.24}{}}
\newlabel{sec2:canonical1}{{1.26}{11}{Free scalar field in a curved spacetime}{equation.1.2.26}{}}
\newlabel{sec2:canonical2}{{1.27}{11}{Free scalar field in a curved spacetime}{equation.1.2.26}{}}
\newlabel{sec2:posfreq1}{{1.28}{11}{Free scalar field in a curved spacetime}{equation.1.2.28}{}}
\newlabel{sec2:posfreq2}{{1.29}{11}{Free scalar field in a curved spacetime}{equation.1.2.28}{}}
\newlabel{sec2:crean}{{1.32}{11}{Free scalar field in a curved spacetime}{equation.1.2.32}{}}
\citation{Wald1984}
\citation{Chmielowski1994}
\citation{Fulling1973a}
\newlabel{sec2:exp1}{{1.34}{12}{Free scalar field in a curved spacetime}{equation.1.2.34}{}}
\newlabel{sec2:exp2}{{1.35}{12}{Free scalar field in a curved spacetime}{equation.1.2.34}{}}
\newlabel{sec2:expp1}{{1.38}{12}{Free scalar field in a curved spacetime}{equation.1.2.38}{}}
\newlabel{sec2:expp2}{{1.39}{12}{Free scalar field in a curved spacetime}{equation.1.2.38}{}}
\newlabel{sec2:bog1}{{1.41}{12}{Free scalar field in a curved spacetime}{equation.1.2.41}{}}
\citation{Crispino2008}
\citation{Crispino2008}
\citation{Einstein1908,Born1909,Sommerfeld1910,Kottler1914,rohrlich1963,Rindler1960,Rindler1966}
\@writefile{toc}{\contentsline {subsection}{\numberline {1.2.2}Rindler coordinates}{13}{subsection.1.2.2}}
\@writefile{lof}{\contentsline {figure}{\numberline {1.1}{\ignorespaces  Figure from~\cite  {Crispino2008}. The regions with $|t|<z$, $|t| < -z$, $t>|z|$ and $t< -|z|$, denoted RR, LR, EDK and CDK, respectively, are the right Rindler wedge,left Rindler wedge, expanding degenerate Kasner universe and contracting degenerate Kasner universe, respectively. The curves with arrows are integral curves of the boost Killing vector field $z \partial _t + t \partial _z$.\relax }}{13}{figure.caption.3}}
\providecommand*\caption@xref[2]{\@setref\relax\@undefined{#1}}
\newlabel{MilneRindler}{{1.1}{13}{Figure from~\cite {Crispino2008}. The regions with $|t|<z$, $|t| < -z$, $t>|z|$ and $t< -|z|$, denoted RR, LR, EDK and CDK, respectively, are the right Rindler wedge,left Rindler wedge, expanding degenerate Kasner universe and contracting degenerate Kasner universe, respectively. The curves with arrows are integral curves of the boost Killing vector field $z \partial _t + t \partial _z$.\relax }{figure.caption.3}{}}
\newlabel{sec2:boost1}{{1.43}{13}{Rindler coordinates}{equation.1.2.43}{}}
\newlabel{sec2:boost2}{{1.44}{13}{Rindler coordinates}{equation.1.2.43}{}}
\newlabel{sec2:Rindcoord}{{1.45}{13}{Rindler coordinates}{equation.1.2.45}{}}
\newlabel{sec2:Rindcoord2}{{1.46}{14}{Rindler coordinates}{equation.1.2.46}{}}
\newlabel{sec2:RindlerRL}{{1.47}{14}{Rindler coordinates}{equation.1.2.47}{}}
\newlabel{gr_rind_hyp}{{1.48}{14}{Rindler coordinates}{equation.1.2.48}{}}
\newlabel{gr_clock_m}{{1.49}{14}{Rindler coordinates}{equation.1.2.49}{}}
\newlabel{gr_tau_eta}{{1.50}{14}{Rindler coordinates}{equation.1.2.50}{}}
\@writefile{toc}{\contentsline {subsection}{\numberline {1.2.3}Minkowski and Rindler modes}{14}{subsection.1.2.3}}
\newlabel{qft_uk}{{1.51}{15}{Minkowski and Rindler modes}{equation.1.2.51}{}}
\newlabel{qft_dec_a}{{1.52}{15}{Minkowski and Rindler modes}{equation.1.2.52}{}}
\newlabel{qft_scalar_r}{{1.53}{15}{Minkowski and Rindler modes}{equation.1.2.53}{}}
\newlabel{qft_wi_m_r}{{1.54}{15}{Minkowski and Rindler modes}{equation.1.2.54}{}}
\newlabel{qft_wii_m_r}{{1.55}{15}{Minkowski and Rindler modes}{equation.1.2.55}{}}
\newlabel{qft_dec_b_3d}{{1.56}{15}{Minkowski and Rindler modes}{equation.1.2.56}{}}
\newlabel{rqi_u_bogoalld}{{1.57}{15}{Minkowski and Rindler modes}{equation.1.2.57}{}}
\citation{Tolman1930,Rovelli2011}
\@writefile{toc}{\contentsline {subsection}{\numberline {1.2.4}Unruh temperature -- 1+1-dimensional example}{16}{subsection.1.2.4}}
\newlabel{rqi_ansatz}{{1.59}{16}{Unruh temperature -- 1+1-dimensional example}{equation.1.2.59}{}}
\newlabel{rqi_tms}{{1.60}{16}{Unruh temperature -- 1+1-dimensional example}{equation.1.2.60}{}}
\newlabel{rqi_thermal}{{1.62}{16}{Unruh temperature -- 1+1-dimensional example}{equation.1.2.62}{}}
\newlabel{rqi_utemp_a}{{1.63}{16}{Unruh temperature -- 1+1-dimensional example}{equation.1.2.63}{}}
\citation{Landauer1991}
\citation{Bennett1993a,Vaidman1994a,Braunstein1998a}
\citation{Alsing2002,TERASHIMA2003,Peres2004,Czachor1997,Ahn2003,Massar2006,Ball2006a}
\citation{Peres2004,Peres2002,Alsing2002,Gingrich2002,Gingrich2003,Pachos2002}
\citation{Gingrich2002,Peres2004,Caban2010}
\citation{Peres2004}
\citation{Peres2002,Gingrich2002,Gingrich2003,Pachos2002,Wootters1998,Caban2010,Caban2003,Czachor2003,Caban2005,Saldanha2012,Terno2003,Caban2009,Ryder1996,Czachor2005,Lee2004,Friis2010}
\@writefile{toc}{\contentsline {chapter}{\numberline {2}Entanglement as an observer-dependent quantity}{17}{chapter.2}}
\@writefile{lof}{\addvspace {10\p@ }}
\@writefile{lot}{\addvspace {10\p@ }}
\newlabel{r:entanglement}{{2}{17}{Entanglement as an observer-dependent quantity}{chapter.2}{}}
\@writefile{toc}{\contentsline {section}{\numberline {2.1}Early attempts}{17}{section.2.1}}
\citation{Fuentes-Schuller2005a,Alsing2006a,Alsing2003b,Alsing2004}
\citation{Alsing2003b}
\citation{Fuentes-Schuller2005a}
\citation{Reznik2003,Reznik2005,Lin2010,Olson2011}
\citation{Downes2011a,Bruschi2012a,Friis2012,Friis2012a,Bruschi2013a,Friis2012b}
\citation{Lin2008,Lin2008a,Lin2009,Lin2015,Doukas2010}
\citation{Downes2013,Dragan2012,Dragan2013b,Doukas2013a,Bruschi2012b,Richter2017,Ahmadi2016a,Grochowski2017,Debski2018}
\citation{Fuentes-Schuller2005a,Alsing2006a}
\@writefile{toc}{\contentsline {section}{\numberline {2.2}Entanglement of global modes}{18}{section.2.2}}
\@writefile{lof}{\contentsline {figure}{\numberline {2.1}{\ignorespaces  An uniformly accelerated observer Rob travels along a hyperbola constrained to either region I or region II.\relax }}{19}{figure.caption.4}}
\newlabel{observers}{{2.1}{19}{An uniformly accelerated observer Rob travels along a hyperbola constrained to either region I or region II.\relax }{figure.caption.4}{}}
\newlabel{qft_uk2}{{2.1}{19}{Entanglement of global modes}{equation.2.2.1}{}}
\newlabel{rindlerI}{{2.3}{19}{Entanglement of global modes}{equation.2.2.3}{}}
\newlabel{Mink2Rindler}{{2.5}{20}{Entanglement of global modes}{equation.2.2.5}{}}
\newlabel{bogocoeefs1}{{2.6}{20}{Entanglement of global modes}{equation.2.2.6}{}}
\newlabel{Unruh2Rindler}{{2.7}{20}{Entanglement of global modes}{equation.2.2.7}{}}
\newlabel{eq:unruhmodes}{{2.8}{20}{Entanglement of global modes}{equation.2.2.8}{}}
\citation{Bruschi2010a}
\newlabel{eq:unruhpos}{{2.9}{21}{Entanglement of global modes}{equation.2.2.9}{}}
\newlabel{eq:min2unr}{{2.10}{21}{Entanglement of global modes}{equation.2.2.10}{}}
\newlabel{maxent1}{{2.11}{21}{Entanglement of global modes}{equation.2.2.11}{}}
\newlabel{spunr}{{2.12}{21}{Entanglement of global modes}{equation.2.2.12}{}}
\newlabel{spunr2}{{2.13}{21}{Entanglement of global modes}{equation.2.2.13}{}}
\newlabel{spunr3}{{2.14}{21}{Entanglement of global modes}{equation.2.2.14}{}}
\citation{Bruschi2010a}
\citation{Bruschi2010a}
\citation{Alsing2002}
\citation{Fuentes-Schuller2005a}
\citation{Alsing2002}
\citation{Fuentes-Schuller2005a}
\newlabel{spunr4}{{2.15}{22}{Entanglement of global modes}{equation.2.2.15}{}}
\@writefile{lof}{\contentsline {figure}{\numberline {2.2}{\ignorespaces  Picture from~\cite  {,Bruschi2010a}. Logarithmic negativity for the Alice-Rob system (blue continuous) as a function of $r=\atanh  (e^{-\pi \Omega })$ for various choices of $|q_R|$. The blue continuous curves from top to bottom correspond to $|q_R| = 1, 0.9, 0.8, 0.7$, respectively.\relax }}{22}{figure.caption.5}}
\newlabel{bosons}{{2.2}{22}{Picture from~\cite {,Bruschi2010a}. Logarithmic negativity for the Alice-Rob system (blue continuous) as a function of $r=\atanh (e^{-\pi \Omega })$ for various choices of $|q_R|$. The blue continuous curves from top to bottom correspond to $|q_R| = 1, 0.9, 0.8, 0.7$, respectively.\relax }{figure.caption.5}{}}
\newlabel{SMA}{{2.16}{22}{Entanglement of global modes}{equation.2.2.16}{}}
\newlabel{phi2}{{2.17}{22}{Entanglement of global modes}{equation.2.2.17}{}}
\citation{Alsing2002}
\citation{Fuentes-Schuller2005a}
\citation{Doukas2013a}
\citation{Dragan2012,Dragan2013b}
\newlabel{Mink2Rindler2}{{2.18}{23}{Entanglement of global modes}{equation.2.2.18}{}}
\@writefile{lof}{\contentsline {figure}{\numberline {2.3}{\ignorespaces The spatial profile of a right-moving Unruh mode with $\Omega =1$. Note that $z$ axis is in logarithmic scale. Therefore, steady oscillations imply growing rate of oscillations when nearing $z=0$. \relax }}{23}{figure.caption.6}}
\newlabel{unrugmode}{{2.3}{23}{The spatial profile of a right-moving Unruh mode with $\Omega =1$. Note that $z$ axis is in logarithmic scale. Therefore, steady oscillations imply growing rate of oscillations when nearing $z=0$. \relax }{figure.caption.6}{}}
\citation{Dragan2004,Dragan2007}
\citation{Banaszek2004}
\citation{Dragan2012}
\citation{Dragan2012}
\citation{Sorkin1993,Lin2012}
\@writefile{toc}{\contentsline {section}{\numberline {2.3}Localized projective measurement of a quantum field}{24}{section.2.3}}
\@writefile{lof}{\contentsline {figure}{\numberline {2.4}{\ignorespaces Figure from~\cite  {,Dragan2012}. Detection of a state of single light-mode by means of a lens $L$, single mode fiber $SMF$ and a photon-counting detector $D$. \relax }}{24}{figure.caption.7}}
\newlabel{scheme1}{{2.4}{24}{Figure from~\cite {,Dragan2012}. Detection of a state of single light-mode by means of a lens $L$, single mode fiber $SMF$ and a photon-counting detector $D$. \relax }{figure.caption.7}{}}
\citation{Glauber1963}
\citation{Dragan2012}
\citation{Dragan2012}
\newlabel{tarce}{{2.19}{25}{Localized projective measurement of a quantum field}{equation.2.3.19}{}}
\newlabel{GlauberTransition}{{2.20}{25}{Localized projective measurement of a quantum field}{equation.2.3.20}{}}
\newlabel{GlauberMixedProb}{{2.21}{25}{Localized projective measurement of a quantum field}{equation.2.3.21}{}}
\newlabel{ddecomp}{{2.22}{25}{Localized projective measurement of a quantum field}{equation.2.3.22}{}}
\citation{Dragan2012}
\citation{Dragan2012}
\citation{Dragan2001}
\citation{Downes2013}
\citation{Dragan2012}
\newlabel{eqn:GlauberUDWmeet}{{2.23}{26}{Localized projective measurement of a quantum field}{equation.2.3.23}{}}
\citation{Ahmadi2016a}
\citation{Grochowski2017}
\citation{Pierini2018a}
\citation{Richter2017,Rajchel2018}
\citation{Debski2018}
\@writefile{toc}{\contentsline {chapter}{\numberline {3}Effect of relativistic acceleration on localized two-mode Gaussian states in $3+1$-dimensional spacetime}{27}{chapter.3}}
\@writefile{lof}{\addvspace {10\p@ }}
\@writefile{lot}{\addvspace {10\p@ }}
\newlabel{r:3d}{{3}{27}{Effect of relativistic acceleration on localized two-mode Gaussian states in $3+1$-dimensional spacetime}{chapter.3}{}}
\@writefile{toc}{\contentsline {section}{\numberline {3.1}Modified Rindler coordinates}{27}{section.3.1}}
\newlabel{opus_b3_mod_Rindler}{{3.1}{28}{Modified Rindler coordinates}{equation.3.1.1}{}}
\@writefile{lof}{\contentsline {figure}{\numberline {3.1}{\ignorespaces  (Left) When Rindler wedges I and II do not have a common apex and the two regions do not overlap. (Right) When Rindler wedges I and II do not have a common apex and the two regions overlap. \relax }}{28}{figure.caption.8}}
\newlabel{schemes}{{3.1}{28}{(Left) When Rindler wedges I and II do not have a common apex and the two regions do not overlap. (Right) When Rindler wedges I and II do not have a common apex and the two regions overlap. \relax }{figure.caption.8}{}}
\newlabel{opus_dec_b_3d}{{3.2}{28}{Modified Rindler coordinates}{equation.3.1.2}{}}
\@writefile{lof}{\contentsline {figure}{\numberline {3.2}{\ignorespaces  Parallel accelerations with an additional distance $D$. Two wedges do not posses a common apex and both observers accelerate in the same direction. \relax }}{29}{figure.caption.9}}
\newlabel{schemes2}{{3.2}{29}{Parallel accelerations with an additional distance $D$. Two wedges do not posses a common apex and both observers accelerate in the same direction. \relax }{figure.caption.9}{}}
\@writefile{toc}{\contentsline {section}{\numberline {3.2}The channel}{29}{section.3.2}}
\newlabel{phipsiexpa}{{3.3}{29}{The channel}{equation.3.2.3}{}}
\citation{Werner1989}
\newlabel{ddecb}{{3.4}{30}{The channel}{equation.3.2.4}{}}
\newlabel{nooverlap}{{3.5}{30}{The channel}{equation.3.2.5}{}}
\newlabel{GC}{{3.7}{30}{The channel}{equation.3.2.7}{}}
\newlabel{GCFM}{{3.7a}{30}{The channel}{equation.3.2.1}{}}
\newlabel{GCCM}{{3.7b}{30}{The channel}{equation.3.2.2}{}}
\@writefile{toc}{\contentsline {section}{\numberline {3.3}Derivation of the channel}{31}{section.3.3}}
\newlabel{opus_b1_MXd}{{3.8}{31}{Derivation of the channel}{equation.3.3.8}{}}
\newlabel{opus_b1_Mbogo}{{3.9}{31}{Derivation of the channel}{equation.3.3.9}{}}
\newlabel{opus_Mbogo_defn}{{3.10}{31}{Derivation of the channel}{equation.3.3.10}{}}
\newlabel{opus_M}{{3.11}{31}{Derivation of the channel}{equation.3.3.11}{}}
\newlabel{N}{{3.12}{31}{Derivation of the channel}{equation.3.3.12}{}}
\citation{Crispino2008}
\newlabel{opus_b1_s11}{{3.13}{32}{Derivation of the channel}{equation.3.3.13}{}}
\newlabel{opus_b1_s24}{{3.19}{32}{Derivation of the channel}{equation.3.3.19}{}}
\newlabel{opus_b3_d1d1}{{3.20}{32}{Derivation of the channel}{equation.3.3.20}{}}
\newlabel{opus_b3_d1d1d}{{3.21}{32}{Derivation of the channel}{equation.3.3.21}{}}
\newlabel{opus_b3_d1d2}{{3.22}{32}{Derivation of the channel}{equation.3.3.22}{}}
\newlabel{opus_b3_d1d2d}{{3.23}{32}{Derivation of the channel}{equation.3.3.23}{}}
\newlabel{opus_b3_bb1}{{3.24}{32}{Derivation of the channel}{equation.3.3.24}{}}
\newlabel{opus_b3_bb2}{{3.25}{32}{Derivation of the channel}{equation.3.3.25}{}}
\citation{Crispino2008}
\newlabel{noise}{{3.27}{33}{Derivation of the channel}{equation.3.3.27}{}}
\newlabel{N1D0}{{3.28}{33}{Derivation of the channel}{equation.3.3.28}{}}
\newlabel{opus_N12general}{{3.29}{33}{Derivation of the channel}{equation.3.3.29}{}}
\@writefile{toc}{\contentsline {subsection}{\numberline {3.3.1}Antiparallel accelerations, no separation}{33}{subsection.3.3.1}}
\newlabel{sigma1318}{{3.33}{34}{Antiparallel accelerations, no separation}{equation.3.3.33}{}}
\newlabel{N12D0}{{3.34}{34}{Antiparallel accelerations, no separation}{equation.3.3.34}{}}
\@writefile{toc}{\contentsline {subsection}{\numberline {3.3.2}Antiparallel accelerations, nonzero separation}{34}{subsection.3.3.2}}
\citation{Ahmadi2016a}
\newlabel{modifiedbogos}{{3.41}{35}{Antiparallel accelerations, nonzero separation}{equation.3.3.41}{}}
\newlabel{el1}{{3.42}{35}{Antiparallel accelerations, nonzero separation}{equation.3.3.42}{}}
\newlabel{N12Dnon0}{{3.45}{35}{Antiparallel accelerations, nonzero separation}{equation.3.3.45}{}}
\@writefile{toc}{\contentsline {subsection}{\numberline {3.3.3}Parallel accelerations}{36}{subsection.3.3.3}}
\newlabel{modifiedbogos2}{{3.46}{36}{Parallel accelerations}{equation.3.3.46}{}}
\newlabel{N12D0par}{{3.47}{36}{Parallel accelerations}{equation.3.3.47}{}}
\newlabel{N12Dnon0par}{{3.48}{36}{Parallel accelerations}{equation.3.3.48}{}}
\@writefile{toc}{\contentsline {subsection}{\numberline {3.3.4}$a$-independence of the channel}{36}{subsection.3.3.4}}
\citation{Ahmadi2016a}
\@writefile{toc}{\contentsline {section}{\numberline {3.4}Choice of the modes}{37}{section.3.4}}
\newlabel{choice}{{3.4}{37}{Choice of the modes}{section.3.4}{}}
\newlabel{modephi}{{3.56}{38}{Choice of the modes}{equation.3.4.56}{}}
\newlabel{modepsi}{{3.57}{38}{Choice of the modes}{equation.3.4.57}{}}
\citation{Grochowski2017}
\citation{Ahmadi2016a}
\@writefile{lof}{\contentsline {figure}{\numberline {3.3}{\ignorespaces  Comparison of the spatial dependence in $z$-direction for the modes $\phi $ and $\psi $ for the following choice of parameters: $ {\cal  A} =0.1$, $L_{||}=L_\perp =2$, $\Omega _0=4.71$, $m=0.1$, $\kappa _\perp =2$, along the $z$-axis at $x=y=1$. \relax }}{39}{figure.caption.10}}
\newlabel{modes1}{{3.3}{39}{Comparison of the spatial dependence in $z$-direction for the modes $\phi $ and $\psi $ for the following choice of parameters: $\A =0.1$, $L_{||}=L_\pe =2$, $\Omega _0=4.71$, $m=0.1$, $\kappa _\pe =2$, along the $z$-axis at $x=y=1$. \relax }{figure.caption.10}{}}
\@writefile{toc}{\contentsline {section}{\numberline {3.5}Entanglement of the vacuum}{39}{section.3.5}}
\newlabel{vacuumout}{{3.62}{39}{Entanglement of the vacuum}{equation.3.5.62}{}}
\newlabel{logneg}{{3.63}{39}{Entanglement of the vacuum}{equation.3.5.63}{}}
\newlabel{logneg2}{{3.64}{39}{Entanglement of the vacuum}{equation.3.5.64}{}}
\citation{Ahmadi2016a,Richter2017}
\citation{Dragan2013b,Ahmadi2016a}
\@writefile{lof}{\contentsline {figure}{\numberline {3.4}{\ignorespaces {Logarithmic negativity of the Minkowski vacuum for two counter-accelerated modes, as a function of their proper accelerations for $D=0$. We have chosen $L_{||}=L_\perp =2$, $m=0.1$, $\Omega _0\approx 5$ and $\kappa _\perp =2$. }\relax }}{40}{figure.caption.11}}
\newlabel{fig_3d_plotaa}{{3.4}{40}{{Logarithmic negativity of the Minkowski vacuum for two counter-accelerated modes, as a function of their proper accelerations for $D=0$. We have chosen $L_{||}=L_\pe =2$, $m=0.1$, $\Omega _0\approx 5$ and $\kappa _\pe =2$. \label {fig_3d_plotaa}}\relax }{figure.caption.11}{}}
\citation{Ahmadi2016a,Ahmadi2017}
\citation{Ahmadi2016a}
\@writefile{lof}{\contentsline {figure}{\numberline {3.5}{\ignorespaces {Logarithmic negativity of the Minkowski vacuum for two counter-accelerated modes, as a function of $L_{||}$ and $\Omega _0$ for $D=0$. We have chosen $ {\cal  A} _\text  {I}= {\cal  A} _\text  {II}=0.1$, $L_\perp =2$, $m=0.1$, and $\kappa _\perp =2$. }\relax }}{41}{figure.caption.12}}
\newlabel{fig_3d_plotab}{{3.5}{41}{{Logarithmic negativity of the Minkowski vacuum for two counter-accelerated modes, as a function of $L_{||}$ and $\Omega _0$ for $D=0$. We have chosen $\A _\text {I}=\A _\text {II}=0.1$, $L_\pe =2$, $m=0.1$, and $\kappa _\pe =2$. \label {fig_3d_plotab}}\relax }{figure.caption.12}{}}
\newlabel{logneg3}{{3.65}{41}{Entanglement of the vacuum}{equation.3.5.65}{}}
\@writefile{toc}{\contentsline {section}{\numberline {3.6}Concluding remarks}{41}{section.3.6}}
\@writefile{lof}{\contentsline {figure}{\numberline {3.6}{\ignorespaces {Logarithmic negativity of the Minkowski vacuum for two counter-accelerated modes, as a function of $L_\perp $ and $\kappa _\perp $ for $D=0$. We have chosen $ {\cal  A} _\text  {I}= {\cal  A} _\text  {II}=0.1$, $L_{||}=2$, $m=0.1$, $\Omega _0=4.71$. }\relax }}{42}{figure.caption.13}}
\newlabel{fig_3d_plotac}{{3.6}{42}{{Logarithmic negativity of the Minkowski vacuum for two counter-accelerated modes, as a function of $L_\pe $ and $\kappa _\pe $ for $D=0$. We have chosen $\A _\text {I}=\A _\text {II}=0.1$, $L_{||}=2$, $m=0.1$, $\Omega _0=4.71$. \label {fig_3d_plotac}}\relax }{figure.caption.13}{}}
\@writefile{toc}{\contentsline {chapter}{\numberline {4}Skew oriented accelerating observers}{43}{chapter.4}}
\@writefile{lof}{\addvspace {10\p@ }}
\@writefile{lot}{\addvspace {10\p@ }}
\newlabel{r:2d}{{4}{43}{Skew oriented accelerating observers}{chapter.4}{}}
\@writefile{toc}{\contentsline {section}{\numberline {4.1}The setup}{43}{section.4.1}}
\newlabel{skewsetup}{{4.1}{43}{The setup}{section.4.1}{}}
\@writefile{lof}{\contentsline {figure}{\numberline {4.1}{\ignorespaces {The setup in which we study the vacuum entanglement witnessed by two not collinearly moving observers, Alice and Bob. Alice's trajectory (red curve) is kept constant, as she uniformly accelerates along $y=0$ line, making measurement with her detector at $t=0$ and at the position $z=0$. Bob's trajectory (blue curve) is positioned at relative angle $\theta $ with respect to Alice as he also uses his detector at $t=0$. $\theta =\pi $ and $\theta =0$ cases reproduce previously studied counter- and co-accelerated scenarios, respectively. }\relax }}{43}{figure.caption.14}}
\newlabel{scen1}{{4.1}{43}{{The setup in which we study the vacuum entanglement witnessed by two not collinearly moving observers, Alice and Bob. Alice's trajectory (red curve) is kept constant, as she uniformly accelerates along $y=0$ line, making measurement with her detector at $t=0$ and at the position $z=0$. Bob's trajectory (blue curve) is positioned at relative angle $\theta $ with respect to Alice as he also uses his detector at $t=0$. $\theta =\pi $ and $\theta =0$ cases reproduce previously studied counter- and co-accelerated scenarios, respectively. \label {scen1}}\relax }{figure.caption.14}{}}
\@writefile{lof}{\contentsline {figure}{\numberline {4.2}{\ignorespaces {The setup in which Bob's position at $t=0$ is independent of the angle $\theta $ as it is always placed at the origin of the Minkowski coordinates. Both observers are separated by the distance $\frac  {1}{ {\cal  A} }$ and their wavepackets do not overlap at any angle. }\relax }}{44}{figure.caption.15}}
\newlabel{scen2}{{4.2}{44}{{The setup in which Bob's position at $t=0$ is independent of the angle $\theta $ as it is always placed at the origin of the Minkowski coordinates. Both observers are separated by the distance $\frac {1}{\A }$ and their wavepackets do not overlap at any angle. \label {scen2}}\relax }{figure.caption.15}{}}
\@writefile{toc}{\contentsline {section}{\numberline {4.2}Characterization of the quantum channel}{44}{section.4.2}}
\@writefile{lof}{\contentsline {figure}{\numberline {4.3}{\ignorespaces {The setup in which Bob's position at $t=0$ is independent of the angle $\theta $ as it is always placed at $z=-\frac  {1}{ {\cal  A} }$. Both observers are separated by the distance $\frac  {2}{ {\cal  A} }$ and their wavepackets do not overlap at any angle. }\relax }}{45}{figure.caption.16}}
\newlabel{scen3}{{4.3}{45}{{The setup in which Bob's position at $t=0$ is independent of the angle $\theta $ as it is always placed at $z=-\frac {1}{\A }$. Both observers are separated by the distance $\frac {2}{\A }$ and their wavepackets do not overlap at any angle. \label {scen3}}\relax }{figure.caption.16}{}}
\newlabel{N1D0s}{{4.1}{45}{Characterization of the quantum channel}{equation.4.2.1}{}}
\@writefile{toc}{\contentsline {subsection}{\numberline {4.2.1}Calculating the noise matrix $N$}{46}{subsection.4.2.1}}
\newlabel{mprim}{{4.4}{46}{Calculating the noise matrix $N$}{equation.4.2.4}{}}
\newlabel{rindler}{{4.5}{46}{Calculating the noise matrix $N$}{equation.4.2.5}{}}
\newlabel{nota}{{4.6}{46}{Calculating the noise matrix $N$}{equation.4.2.6}{}}
\newlabel{ns}{{4.7}{46}{Calculating the noise matrix $N$}{equation.4.2.7}{}}
\newlabel{ds}{{4.8}{47}{Calculating the noise matrix $N$}{equation.4.2.8}{}}
\newlabel{d2s}{{4.9}{47}{Calculating the noise matrix $N$}{equation.4.2.9}{}}
\newlabel{ns12}{{4.10}{47}{Calculating the noise matrix $N$}{equation.4.2.10}{}}
\@writefile{toc}{\contentsline {section}{\numberline {4.3}The choice of modes}{47}{section.4.3}}
\@writefile{lof}{\contentsline {figure}{\numberline {4.4}{\ignorespaces {The wavepacket used in the skew observers setup. In the left its spatial profile and in the right -- its time derivative. }\relax }}{47}{figure.caption.17}}
\newlabel{wv}{{4.4}{47}{{The wavepacket used in the skew observers setup. In the left its spatial profile and in the right -- its time derivative. \label {wv}}\relax }{figure.caption.17}{}}
\citation{Yu2009}
\citation{Sainz2008}
\@writefile{toc}{\contentsline {section}{\numberline {4.4}Entanglement of the vacuum}{48}{section.4.4}}
\newlabel{logneg4}{{4.11}{48}{Entanglement of the vacuum}{equation.4.4.11}{}}
\@writefile{lof}{\contentsline {figure}{\numberline {4.5}{\ignorespaces {Logarithmic negativity for three different scenarios involving non-collinear trajectories of accelerated observers. From up to bottom, the first, the second, and the third cases introduced in Section~\ref  {skewsetup}. Note the dependence is plotted as a function of $\pi -\theta $, making the counter-accelerated case placed to the left of the figure. In the first plot, the region marked by red color specifies a geometry for which Alice and Bob's wavepackets overlap. Highly non-trivial and non-monotonic behavior is clearly seen in each of the plots. Resonance-like structures emerge as sudden deaths and revivals of the entanglement happen. }\relax }}{49}{figure.caption.18}}
\newlabel{lognegs}{{4.5}{49}{{Logarithmic negativity for three different scenarios involving non-collinear trajectories of accelerated observers. From up to bottom, the first, the second, and the third cases introduced in Section~\ref {skewsetup}. Note the dependence is plotted as a function of $\pi -\theta $, making the counter-accelerated case placed to the left of the figure. In the first plot, the region marked by red color specifies a geometry for which Alice and Bob's wavepackets overlap. Highly non-trivial and non-monotonic behavior is clearly seen in each of the plots. Resonance-like structures emerge as sudden deaths and revivals of the entanglement happen. \label {lognegs}}\relax }{figure.caption.18}{}}
\@writefile{toc}{\contentsline {chapter}{\numberline {5}Conclusions and outlook}{51}{chapter.5}}
\@writefile{lof}{\addvspace {10\p@ }}
\@writefile{lot}{\addvspace {10\p@ }}
\newlabel{r:conscs}{{5}{51}{Conclusions and outlook}{chapter.5}{}}
\@writefile{toc}{\contentsline {chapter}{Appendix \numberline {A}Calculation of the cross elements in the noise matrix for the skew observers}{53}{Appendix.a.A}}
\@writefile{lof}{\addvspace {10\p@ }}
\@writefile{lot}{\addvspace {10\p@ }}
\newlabel{r:app}{{A}{53}{Calculation of the cross elements in the noise matrix for the skew observers}{Appendix.a.A}{}}
\newlabel{ders}{{A.1}{53}{Calculation of the cross elements in the noise matrix for the skew observers}{equation.a.A.0.1}{}}
\newlabel{ns21}{{A.2}{53}{Calculation of the cross elements in the noise matrix for the skew observers}{equation.a.A.0.2}{}}
\newlabel{ns212}{{A.3}{53}{Calculation of the cross elements in the noise matrix for the skew observers}{equation.a.A.0.3}{}}
\newlabel{ho}{{A.4}{53}{Calculation of the cross elements in the noise matrix for the skew observers}{equation.a.A.0.4}{}}
\newlabel{all1}{{A.5}{54}{Calculation of the cross elements in the noise matrix for the skew observers}{equation.a.A.0.5}{}}
\newlabel{nabs}{{A.6}{54}{Calculation of the cross elements in the noise matrix for the skew observers}{equation.a.A.0.6}{}}
\newlabel{modepsi2}{{A.7}{54}{Calculation of the cross elements in the noise matrix for the skew observers}{equation.a.A.0.7}{}}
\newlabel{geez}{{A.9}{54}{Calculation of the cross elements in the noise matrix for the skew observers}{equation.a.A.0.9}{}}
\citation{apsrev41Control}
\bibdata{master,revtex-custom}
\newlabel{pack}{{A.10}{55}{Calculation of the cross elements in the noise matrix for the skew observers}{equation.a.A.0.10}{}}
\newlabel{sadas}{{A.11}{55}{Calculation of the cross elements in the noise matrix for the skew observers}{equation.a.A.0.11}{}}
\newlabel{pl}{{A.12}{55}{Calculation of the cross elements in the noise matrix for the skew observers}{equation.a.A.0.12}{}}
\newlabel{min}{{A.13}{55}{Calculation of the cross elements in the noise matrix for the skew observers}{equation.a.A.0.13}{}}
\bibcite{Hawking1974}{{1}{1974}{{Hawking}}{{}}}
\bibcite{Hawking1975}{{2}{1975}{{Hawking}}{{}}}
\bibcite{Bekenstein1973}{{3}{1973}{{Bekenstein}}{{}}}
\bibcite{Fulling1973a}{{4}{1973}{{Fulling}}{{}}}
\bibcite{Unruh1977}{{5}{1977}{{Unruh}}{{}}}
\bibcite{Davies1975a}{{6}{1975}{{Davies}}{{}}}
\bibcite{Unruh1976a}{{7}{1976}{{Unruh}}{{}}}
\bibcite{Bisognano1975}{{8}{1975}{{Bisognano\ and\ Wichmann}}{{}}}
\bibcite{Bisognano1976}{{9}{1976}{{Bisognano\ and\ Wichmann}}{{}}}
\bibcite{Alsing2012}{{10}{2012}{{Alsing\ and\ Fuentes}}{{}}}
\bibcite{Sciama1981}{{11}{1981}{{Sciama\ \emph  {et~al.}}}{{Sciama, Candelas,\ and\ Deutsch}}}
\bibcite{Jacobson1995}{{12}{1995}{{Jacobson}}{{}}}
\bibcite{Singleton2011}{{13}{2011}{{Singleton\ and\ Wilburn}}{{}}}
\bibcite{Nation2012}{{14}{2012}{{Nation\ \emph  {et~al.}}}{{Nation, Johansson, Blencowe,\ and\ Nori}}}
\bibcite{Moore1970}{{15}{1970}{{Moore}}{{}}}
\bibcite{DeWitt1975}{{16}{1975}{{DeWitt\ and\ S.}}{{}}}
\bibcite{Calogeracos2002}{{17}{2002{}}{{Calogeracos}}{{}}}
\bibcite{Calogeracos2002a}{{18}{2002{}}{{Calogeracos}}{{}}}
\bibcite{Russo2008}{{19}{2008}{{Russo\ and\ Townsend}}{{}}}
\bibcite{Davies1978}{{20}{1978}{{Davies}}{{}}}
\bibcite{Birrell1982}{{21}{1982}{{Birrell\ and\ Davies}}{{}}}
\bibcite{Takagi1986}{{22}{1986}{{Takagi}}{{}}}
\bibcite{Fulling1987}{{23}{1987}{{Fulling\ and\ Ruijsenaars}}{{}}}
\bibcite{Ginzburg1987}{{24}{1987}{{Ginzburg\ and\ Frolov}}{{}}}
\bibcite{Wald1994}{{25}{1994}{{Wald}}{{}}}
\@writefile{toc}{\contentsline {chapter}{Bibliography}{57}{chapter*.19}}
\bibcite{Crispino2008}{{26}{2008}{{Crispino\ \emph  {et~al.}}}{{Crispino, Higuchi,\ and\ Matsas}}}
\bibcite{Glauber1963}{{27}{1963}{{Glauber}}{{}}}
\bibcite{DeWitt1979}{{28}{1979}{{DeWitt}}{{}}}
\bibcite{Hu2012}{{29}{2012}{{Hu\ \emph  {et~al.}}}{{Hu, Lin,\ and\ Louko}}}
\bibcite{Louko2007}{{30}{2007}{{Louko\ and\ Satz}}{{}}}
\bibcite{Hodgkinson2012}{{31}{2012}{{Hodgkinson\ and\ Louko}}{{}}}
\bibcite{Hodgkinson2014}{{32}{2014}{{Hodgkinson\ \emph  {et~al.}}}{{Hodgkinson, Louko,\ and\ Ottewill}}}
\bibcite{Martin-Martinez2014}{{33}{2014}{{Mart{\'{i}}n-Mart{\'{i}}nez\ and\ Menicucci}}{{}}}
\bibcite{Ginzburg1964}{{34}{1964}{{Ginzburg\ and\ Zharkov}}{{}}}
\bibcite{Muller1997}{{35}{1997}{{M{\"{u}}ller}}{{}}}
\bibcite{Vanzella2000}{{36}{2000}{{Vanzella\ and\ Matsas}}{{}}}
\bibcite{Fregolente2006}{{37}{2006}{{Fregolente\ \emph  {et~al.}}}{{Fregolente, Matsas,\ and\ Vanzella}}}
\bibcite{Pierini2018}{{38}{2018}{{Pierini\ \emph  {et~al.}}}{{Pierini, Turzy{\'{n}}ski,\ and\ Dragan}}}
\bibcite{Eriksen2000}{{39}{2000{}}{{Eriksen\ and\ Gr{\o }n}}{{}}}
\bibcite{Eriksen2000a}{{40}{2000{}}{{Eriksen\ and\ Gr{\o }n}}{{}}}
\bibcite{Eriksen2000b}{{41}{2000{}}{{Eriksen\ and\ Gr{\o }n}}{{}}}
\bibcite{Eriksen2002}{{42}{2002}{{Eriksen\ and\ Gr{\o }n}}{{}}}
\bibcite{Eriksen2004}{{43}{2004}{{Eriksen\ and\ Gr{\o }n}}{{}}}
\bibcite{Audretsch1995}{{44}{1995}{{Audretsch\ \emph  {et~al.}}}{{Audretsch, Mensky,\ and\ M{\"{u}}ller}}}
\bibcite{Kok2003}{{45}{2003}{{Kok\ and\ Yurtsever}}{{}}}
\bibcite{Wald2005}{{46}{2005}{{Wald}}{{}}}
\bibcite{Page2005}{{47}{2005}{{Page}}{{}}}
\bibcite{Jaskula2012}{{48}{2012}{{Jaskula\ \emph  {et~al.}}}{{Jaskula, Partridge, Bonneau, Lopes, Ruaudel, Boiron,\ and\ Westbrook}}}
\bibcite{Rodriguez-Laguna2017}{{49}{2017}{{Rodr{\'{i}}guez-Laguna\ \emph  {et~al.}}}{{Rodr{\'{i}}guez-Laguna, Tarruell, Lewenstein,\ and\ Celi}}}
\bibcite{Martin-Martinez2010}{{50}{2010}{{Martin-Martinez\ \emph  {et~al.}}}{{Martin-Martinez, Fuentes,\ and\ Mann}}}
\bibcite{Volovik2009}{{51}{2009}{{Volovik}}{{}}}
\bibcite{Unruh1981}{{52}{1981}{{Unruh}}{{}}}
\bibcite{Weinfurtner2011}{{53}{2011}{{Weinfurtner\ \emph  {et~al.}}}{{Weinfurtner, Tedford, Penrice, Unruh,\ and\ Lawrence}}}
\bibcite{Garay2001}{{54}{2001}{{Garay\ \emph  {et~al.}}}{{Garay, Anglin, Cirac,\ and\ Zoller}}}
\bibcite{Fedichev2003}{{55}{2003}{{Fedichev\ and\ Fischer}}{{}}}
\bibcite{Fedichev2004}{{56}{2004}{{Fedichev\ and\ Fischer}}{{}}}
\bibcite{Steinhauer2014}{{57}{2014}{{Steinhauer}}{{}}}
\bibcite{Steinhauer2016}{{58}{2016}{{Steinhauer}}{{}}}
\bibcite{Carusotto2010}{{59}{2010}{{Carusotto\ \emph  {et~al.}}}{{Carusotto, Balbinot, Fabbri,\ and\ Recati}}}
\bibcite{Boiron2015}{{60}{2015}{{Boiron\ \emph  {et~al.}}}{{Boiron, Fabbri, Larr{\'{e}}, Pavloff, Westbrook,\ and\ Zi{\'{n}}}}}
\bibcite{Retzker2008}{{61}{2008}{{Retzker\ \emph  {et~al.}}}{{Retzker, Cirac, Plenio,\ and\ Reznik}}}
\bibcite{Philbin2008}{{62}{2008}{{Philbin\ \emph  {et~al.}}}{{Philbin, Kuklewicz, Robertson, Hill, Konig,\ and\ Leonhardt}}}
\bibcite{Belgiorno2010}{{63}{2010}{{Belgiorno\ \emph  {et~al.}}}{{Belgiorno, Cacciatori, Clerici, Gorini, Ortenzi, Rizzi, Rubino, Sala,\ and\ Faccio}}}
\bibcite{Schutzhold2011}{{64}{2011}{{Sch{\"{u}}tzhold\ and\ Unruh}}{{}}}
\bibcite{Unruh2012}{{65}{2012}{{Unruh\ and\ Sch{\"{u}}tzhold}}{{}}}
\bibcite{Finazzi2014}{{66}{2014}{{Finazzi\ and\ Carusotto}}{{}}}
\bibcite{Iorio2012}{{67}{2012}{{Iorio}}{{}}}
\bibcite{Chen2012}{{68}{2012}{{Chen\ and\ Rosu}}{{}}}
\bibcite{Iorio2014}{{69}{2014}{{Iorio\ and\ Lambiase}}{{}}}
\bibcite{Peres2004}{{70}{2004}{{Peres\ and\ Terno}}{{}}}
\bibcite{Fuentes-Schuller2005a}{{71}{2005}{{Fuentes-Schuller\ and\ Mann}}{{}}}
\bibcite{Reznik2003}{{72}{2003}{{Reznik}}{{}}}
\bibcite{Reznik2005}{{73}{2005}{{Reznik\ \emph  {et~al.}}}{{Reznik, Retzker,\ and\ Silman}}}
\bibcite{Valentini1991}{{74}{1991}{{Valentini}}{{}}}
\bibcite{Pozas-Kerstjens2015}{{75}{2015}{{Pozas-Kerstjens\ and\ Mart{\'{i}}n-Mart{\'{i}}nez}}{{}}}
\bibcite{Martin-Martinez2013}{{76}{2013}{{Mart{\'{i}}n-Mart{\'{i}}nez\ \emph  {et~al.}}}{{Mart{\'{i}}n-Mart{\'{i}}nez, Brown, Donnelly,\ and\ Kempf}}}
\bibcite{Salton2015}{{77}{2015}{{Salton\ \emph  {et~al.}}}{{Salton, Mann,\ and\ Menicucci}}}
\bibcite{Steeg2009}{{78}{2009}{{Steeg\ and\ Menicucci}}{{}}}
\bibcite{Martin-Martinez2012}{{79}{2012}{{Mart{\'{i}}n-Mart{\'{i}}nez\ and\ Menicucci}}{{}}}
\bibcite{Ahmadi2016a}{{80}{2016}{{Ahmadi\ \emph  {et~al.}}}{{Ahmadi, Lorek, Ch{\c {e}}ci{\'{n}}ska, Smith, Mann,\ and\ Dragan}}}
\bibcite{Adesso2007a}{{81}{2007}{{Adesso}}{{}}}
\bibcite{Simon1994}{{82}{1994}{{Simon\ \emph  {et~al.}}}{{Simon, Mukunda,\ and\ Dutta}}}
\bibcite{Holevo1975}{{83}{1975}{{Holevo}}{{}}}
\bibcite{Schumaker1986}{{84}{1986}{{Schumaker\ and\ L.}}{{}}}
\bibcite{Simon1988}{{85}{1988}{{Simon\ \emph  {et~al.}}}{{Simon, Sudarshan,\ and\ Mukunda}}}
\bibcite{Braunstein2005}{{86}{2005}{{Braunstein\ and\ van Loock}}{{}}}
\bibcite{Werner1989}{{87}{1989}{{Werner}}{{}}}
\bibcite{Peres1996}{{88}{1996}{{Peres}}{{}}}
\bibcite{Horodecki1996}{{89}{1996}{{Horodecki\ \emph  {et~al.}}}{{Horodecki, Horodecki,\ and\ Horodecki}}}
\bibcite{Simon2000}{{90}{2000}{{Simon}}{{}}}
\bibcite{Vidal2002}{{91}{2002}{{Vidal\ and\ Werner}}{{}}}
\bibcite{Serafini2004}{{92}{2004}{{Serafini\ \emph  {et~al.}}}{{Serafini, Illuminati,\ and\ Siena}}}
\bibcite{Arnowitt1962}{{93}{1962}{{Arnowitt\ \emph  {et~al.}}}{{Arnowitt, Deser,\ and\ Misner}}}
\bibcite{Wald1984}{{94}{1984}{{Wald}}{{}}}
\bibcite{Chmielowski1994}{{95}{1994}{{Chmielowski}}{{}}}
\bibcite{Einstein1908}{{96}{1908}{{Einstein\ and\ Albert}}{{}}}
\bibcite{Born1909}{{97}{1909}{{Born}}{{}}}
\bibcite{Sommerfeld1910}{{98}{1910}{{Sommerfeld}}{{}}}
\bibcite{Kottler1914}{{99}{1914}{{Kottler}}{{}}}
\bibcite{rohrlich1963}{{100}{1963}{{Rohrlich}}{{}}}
\bibcite{Rindler1960}{{101}{1960}{{Rindler}}{{}}}
\bibcite{Rindler1966}{{102}{1966}{{Rindler}}{{}}}
\bibcite{Tolman1930}{{103}{1930}{{Tolman\ and\ Ehrenfest}}{{}}}
\bibcite{Rovelli2011}{{104}{2011}{{Rovelli\ and\ Smerlak}}{{}}}
\bibcite{Landauer1991}{{105}{1991}{{Landauer}}{{}}}
\bibcite{Bennett1993a}{{106}{1993}{{Bennett\ \emph  {et~al.}}}{{Bennett, Brassard, Cr{\'{e}}peau, Jozsa, Peres,\ and\ Wootters}}}
\bibcite{Vaidman1994a}{{107}{1994}{{Vaidman}}{{}}}
\bibcite{Braunstein1998a}{{108}{1998}{{Braunstein\ and\ Kimble}}{{}}}
\bibcite{Alsing2002}{{109}{2002}{{Alsing\ and\ Milburn}}{{}}}
\bibcite{TERASHIMA2003}{{110}{2003}{{Terashima\ and\ Ueda}}{{}}}
\bibcite{Czachor1997}{{111}{1997}{{Czachor}}{{}}}
\bibcite{Ahn2003}{{112}{2003}{{Ahn\ \emph  {et~al.}}}{{Ahn, Lee, Moon,\ and\ Hwang}}}
\bibcite{Massar2006}{{113}{2006}{{Massar\ and\ Spindel}}{{}}}
\bibcite{Ball2006a}{{114}{2006}{{Ball}}{{}}}
\bibcite{Peres2002}{{115}{2002}{{Peres\ \emph  {et~al.}}}{{Peres, Scudo,\ and\ Terno}}}
\bibcite{Gingrich2002}{{116}{2002}{{Gingrich\ and\ Adami}}{{}}}
\bibcite{Gingrich2003}{{117}{2003}{{Gingrich\ \emph  {et~al.}}}{{Gingrich, Bergou,\ and\ Adami}}}
\bibcite{Pachos2002}{{118}{2002}{{Pachos\ and\ Solano}}{{}}}
\bibcite{Caban2010}{{119}{2010}{{Caban\ \emph  {et~al.}}}{{Caban, Dzi{\c {e}}gielewska, Karmazyn,\ and\ Okrasa}}}
\bibcite{Wootters1998}{{120}{1998}{{Wootters}}{{}}}
\bibcite{Caban2003}{{121}{2003}{{Caban\ and\ Rembieli{\'{n}}ski}}{{}}}
\bibcite{Czachor2003}{{122}{2003}{{Czachor\ and\ Wilczewski}}{{}}}
\bibcite{Caban2005}{{123}{2005}{{Caban\ and\ Rembieli{\'{n}}ski}}{{}}}
\bibcite{Saldanha2012}{{124}{2012}{{Saldanha\ and\ Vedral}}{{}}}
\bibcite{Terno2003}{{125}{2003}{{Terno}}{{}}}
\bibcite{Caban2009}{{126}{2009}{{Caban\ \emph  {et~al.}}}{{Caban, Rembieli{\'{n}}ski,\ and\ W{\l }odarczyk}}}
\bibcite{Ryder1996}{{127}{1996}{{Ryder}}{{}}}
\bibcite{Czachor2005}{{128}{2005}{{Czachor}}{{}}}
\bibcite{Lee2004}{{129}{2004}{{Lee\ and\ Chang-Young}}{{}}}
\bibcite{Friis2010}{{130}{2010}{{Friis\ \emph  {et~al.}}}{{Friis, Bertlmann, Huber,\ and\ Hiesmayr}}}
\bibcite{Alsing2006a}{{131}{2006}{{Alsing\ \emph  {et~al.}}}{{Alsing, Fuentes-Schuller, Mann,\ and\ Tessier}}}
\bibcite{Alsing2003b}{{132}{2003}{{Alsing\ and\ Milburn}}{{}}}
\bibcite{Alsing2004}{{133}{2004}{{Alsing\ \emph  {et~al.}}}{{Alsing, McMahon,\ and\ Milburn}}}
\bibcite{Lin2010}{{134}{2010}{{Lin\ and\ Hu}}{{}}}
\bibcite{Olson2011}{{135}{2011}{{Olson\ and\ Ralph}}{{}}}
\bibcite{Downes2011a}{{136}{2011}{{Downes\ \emph  {et~al.}}}{{Downes, Fuentes,\ and\ Ralph}}}
\bibcite{Bruschi2012a}{{137}{2012{}}{{Bruschi\ \emph  {et~al.}}}{{Bruschi, Fuentes,\ and\ Louko}}}
\bibcite{Friis2012}{{138}{2012{}}{{Friis\ \emph  {et~al.}}}{{Friis, Bruschi, Louko,\ and\ Fuentes}}}
\bibcite{Friis2012a}{{139}{2012{}}{{Friis\ \emph  {et~al.}}}{{Friis, Lee, Bruschi,\ and\ Louko}}}
\bibcite{Bruschi2013a}{{140}{2013}{{Bruschi\ \emph  {et~al.}}}{{Bruschi, Dragan, Lee, Fuentes,\ and\ Louko}}}
\bibcite{Friis2012b}{{141}{2012}{{Friis\ and\ Fuentes}}{{}}}
\bibcite{Lin2008}{{142}{2008}{{Lin\ and\ Hu}}{{}}}
\bibcite{Lin2008a}{{143}{2008}{{Lin\ \emph  {et~al.}}}{{Lin, Chou,\ and\ Hu}}}
\bibcite{Lin2009}{{144}{2009}{{Lin\ and\ Hu}}{{}}}
\bibcite{Lin2015}{{145}{2015}{{Lin\ \emph  {et~al.}}}{{Lin, Chou,\ and\ Hu}}}
\bibcite{Doukas2010}{{146}{2010}{{Doukas\ and\ Carson}}{{}}}
\bibcite{Downes2013}{{147}{2013}{{Downes\ \emph  {et~al.}}}{{Downes, Ralph,\ and\ Walk}}}
\bibcite{Dragan2012}{{148}{2012}{{Dragan\ \emph  {et~al.}}}{{Dragan, Doukas, Martin-Martinez,\ and\ Bruschi}}}
\bibcite{Dragan2013b}{{149}{2013}{{Dragan\ \emph  {et~al.}}}{{Dragan, Doukas,\ and\ Mart{\'{i}}n-Mart{\'{i}}nez}}}
\bibcite{Doukas2013a}{{150}{2013}{{Doukas\ \emph  {et~al.}}}{{Doukas, Brown, Dragan,\ and\ Mann}}}
\bibcite{Bruschi2012b}{{151}{2012{}}{{Bruschi\ \emph  {et~al.}}}{{Bruschi, Dragan, Fuentes,\ and\ Louko}}}
\bibcite{Richter2017}{{152}{2017}{{Richter\ \emph  {et~al.}}}{{Richter, Lorek, Dragan,\ and\ Omar}}}
\bibcite{Grochowski2017}{{153}{2017}{{Grochowski\ \emph  {et~al.}}}{{Grochowski, Rajchel, Kia{\l }ka,\ and\ Dragan}}}
\bibcite{Debski2018}{{154}{2018}{{D{\c {e}}bski\ and\ Dragan}}{{}}}
\bibcite{Bruschi2010a}{{155}{2010}{{Bruschi\ \emph  {et~al.}}}{{Bruschi, Louko, Mart{\'{i}}n-Mart{\'{i}}nez, Dragan,\ and\ Fuentes}}}
\bibcite{Dragan2004}{{156}{2004}{{Dragan}}{{}}}
\bibcite{Dragan2007}{{157}{2007}{{Dragan\ and\ Zi{\'{n}}}}{{}}}
\bibcite{Banaszek2004}{{158}{2004}{{Banaszek\ \emph  {et~al.}}}{{Banaszek, Dragan, Wasilewski,\ and\ Radzewicz}}}
\bibcite{Sorkin1993}{{159}{1993}{{Sorkin}}{{}}}
\bibcite{Lin2012}{{160}{2012}{{Lin}}{{}}}
\bibcite{Dragan2001}{{161}{2001}{{Dragan\ and\ Banaszek}}{{}}}
\bibcite{Pierini2018a}{{162}{2018}{{Pierini\ and\ Dragan}}{{}}}
\bibcite{Rajchel2018}{{163}{2018}{{Rajchel\ and\ Dragan}}{{}}}
\bibcite{Ahmadi2017}{{164}{2017}{{Ahmadi\ \emph  {et~al.}}}{{Ahmadi, Lorek, Ch{\c {e}}ci{\'{n}}ska, Smith, Mann,\ and\ Dragan}}}
\bibcite{Yu2009}{{165}{2009}{{Yu\ and\ Eberly}}{{}}}
\bibcite{Sainz2008}{{166}{2008}{{Sainz\ and\ Bj{\"{o}}rk}}{{}}}
